{
    "eval_exact_match": 0.655705996131528,
    "eval_exec": 0.6856866537717602,
    "eval_loss": 0.4573950171470642,
    "eval_runtime": 2178.5776,
    "eval_samples": 1034,
    "eval_samples_per_second": 0.475
}