dataset,model_name,path
cspider,mixup-zh-google-translate-en-layer7,eval-mix-up-fixed
cspider,concat-zh-zh,cspider-google-translate-mixaug-zhonly
cspider,zh,eval-cspider-finetuned-picard
cspider,google-translate-en,eval-cspider-google-translate-finetuned-picard-fixed
cspider,local-global-zh-google-translate-en-layer7,eval-mixup-cspider-filter-layer7-1152
cspider,concat-en-zh-focus-on-target,eval-mixup-cspider-google-translate-concat-focus-on-target
cspider,concat-zh-en,eval-spider-cspider-google-translate-parallel-picard-fixed
cspider,bridge-bottleneck,eval-bridge-bottleneck-15-192
cspider,bridge-mixup-bottleneck,eval-bridge-mixup-bottleneck-15-704
cspider,bridge-mixup-bottleneck-19,eval-bridge-mixup-bottleneck-layer-19
