{
    "use_picard": true,
    "launch_picard": true,
    "picard_host": "localhost",
    "picard_port": 9090,
    "picard_mode": "parse_with_guards",
    "picard_schedule": "incremental",
    "picard_max_tokens_to_check": 2,
    "model_name_or_path": "ckpts/cspider_simple_concat",
    "config_name": null,
    "tokenizer_name": null,
    "cache_dir": "transformers_cache",
    "use_fast_tokenizer": true,
    "model_revision": "main",
    "use_auth_token": true,
    "in_context_learning": false,
    "context_size": 5,
    "freeze_embedding": false,
    "replace_embedding": false,
    "contrastive_training": false,
    "multidecoder": false,
    "mlm_model_name_or_path": null,
    "mixup": false,
    "seqmixup": false,
    "bridge": true,
    "data_collator": null,
    "mixup_arch": "basic-mixup",
    "bridge_arch": "simple_concat",
    "use_explainer": false,
    "mid_layer": 7,
    "mid_layer_num": 1,
    "use_parallel": false,
    "use_foreign_encoder": false,
    "multitasking": false,
    "task": "decoder_distillation",
    "data_collators": null,
    "tasks": "",
    "modified_decoder": false,
    "auto_weight": "none",
    "mlm_dataset": "",
    "mlm_dataset_name": "",
    "dataset": "bridge",
    "dataset_name": "cspider-bridge",
    "dataset_paths": {
        "spider": "./seq2seq/datasets/spider/spider.py",
        "in-context-spider": "./seq2seq/datasets/spider/in_context_spider.py",
        "cosql": "./seq2seq/datasets/cosql",
        "cspider": "./seq2seq/datasets/spider/cspider.py",
        "vspider": "./seq2seq/datasets/spider/vspider.py",
        "mspider": "./seq2seq/datasets/spider/mspider.py",
        "faspider": "./seq2seq/datasets/spider/faspider.py",
        "hispider": "./seq2seq/datasets/spider/hispider.py",
        "zhspider": "./seq2seq/datasets/spider/zhspider.py",
        "atis": "./seq2seq/datasets/atis/matis.py",
        "geography": "./seq2seq/datasets/geography/geography.py",
        "in-context-geography": "./seq2seq/datasets/geography/in_context_geography.py",
        "kaggledbqa": "./seq2seq/datasets/kaggledbqa/kaggledbqa.py"
    },
    "metric_config": "both",
    "metric_paths": {
        "spider": "./seq2seq/metrics/spider",
        "cosql": "./seq2seq/metrics/cosql",
        "cspider": "./seq2seq/metrics/spider",
        "vspider": "./seq2seq/metrics/spider",
        "geography": "./seq2seq/metrics/spider",
        "kaggledbqa": "./seq2seq/metrics/spider"
    },
    "test_suite_db_dir": null,
    "data_config_file": null,
    "test_sections": null,
    "overwrite_cache": false,
    "preprocessing_num_workers": null,
    "max_source_length": 512,
    "max_target_length": 512,
    "val_max_target_length": 512,
    "val_max_time": 1200,
    "max_train_samples": null,
    "max_val_samples": 1034,
    "num_beams": 4,
    "num_beam_groups": 1,
    "diversity_penalty": 0.0,
    "ignore_pad_token_for_loss": true,
    "source_prefix": "",
    "schema_serialization_type": "peteshaw",
    "schema_serialization_randomized": false,
    "schema_serialization_with_db_id": true,
    "schema_serialization_with_db_content": true,
    "normalize_query": true,
    "target_with_db_id": true,
    "output_dir": "evals/eval-cspider-on-cspider_simple_concat",
    "overwrite_output_dir": false,
    "do_train": false,
    "do_eval": true,
    "do_predict": false,
    "evaluation_strategy": "no",
    "prediction_loss_only": false,
    "per_device_train_batch_size": 8,
    "per_device_eval_batch_size": 1,
    "per_gpu_train_batch_size": "None",
    "per_gpu_eval_batch_size": "None",
    "gradient_accumulation_steps": 1,
    "eval_accumulation_steps": 1,
    "learning_rate": 5e-05,
    "weight_decay": 0.0,
    "adam_beta1": 0.9,
    "adam_beta2": 0.999,
    "adam_epsilon": 1e-08,
    "max_grad_norm": 1.0,
    "num_train_epochs": 3.0,
    "max_steps": -1,
    "lr_scheduler_type": "linear",
    "warmup_ratio": 0.0,
    "warmup_steps": 0,
    "log_level": -1,
    "log_level_replica": -1,
    "log_on_each_node": true,
    "logging_dir": "evals/eval-cspider-on-cspider_simple_concat/runs/Jun16_18-05-28_3750d5af6aba",
    "logging_strategy": "steps",
    "logging_first_step": false,
    "logging_steps": 500,
    "logging_nan_inf_filter": true,
    "save_strategy": "steps",
    "save_steps": 500,
    "save_total_limit": "None",
    "save_on_each_node": false,
    "no_cuda": false,
    "seed": 1,
    "fp16": false,
    "fp16_opt_level": "O1",
    "fp16_backend": "auto",
    "fp16_full_eval": false,
    "xpu_backend": "None",
    "tpu_num_cores": "None",
    "tpu_metrics_debug": false,
    "debug": "[]",
    "dataloader_drop_last": false,
    "eval_steps": "None",
    "dataloader_num_workers": 0,
    "past_index": -1,
    "run_name": "eval",
    "disable_tqdm": false,
    "remove_unused_columns": false,
    "label_names": "None",
    "load_best_model_at_end": false,
    "metric_for_best_model": "None",
    "greater_is_better": "None",
    "ignore_data_skip": false,
    "sharded_ddp": "[]",
    "deepspeed": "None",
    "label_smoothing_factor": 0.0,
    "adafactor": false,
    "group_by_length": false,
    "length_column_name": "length",
    "report_to": "['wandb']",
    "ddp_find_unused_parameters": "None",
    "dataloader_pin_memory": true,
    "skip_memory_metrics": true,
    "use_legacy_prediction_loop": false,
    "push_to_hub": false,
    "resume_from_checkpoint": "None",
    "hub_model_id": "None",
    "hub_strategy": "every_save",
    "hub_token": "<HUB_TOKEN>",
    "gradient_checkpointing": false,
    "push_to_hub_model_id": "None",
    "push_to_hub_organization": "None",
    "push_to_hub_token": "<PUSH_TO_HUB_TOKEN>",
    "_n_gpu": 1,
    "mp_parameters": "",
    "sortish_sampler": false,
    "predict_with_generate": true,
    "generation_max_length": "None",
    "generation_num_beams": "None",
    "train_batch_size": 8,
    "eval_batch_size": 1
}