{
    "eval_exact_match": 0.6566731141199227,
    "eval_exec": 0.7224371373307543,
    "eval_loss": 0.5046388506889343,
    "eval_runtime": 1133.1138,
    "eval_samples": 1034,
    "eval_samples_per_second": 0.913
}